id,staff,time_stamp,segment_intersection,model_geography,model_type,model,model_name,n_variables,variables,stage,hyper_para,sampling,other_pre_processing,auc,best_thres,f2,brier,top_features,map_train,map_test,run_time,training_true_negative,training_false_positive,training_false_negative,training_true_positive,training_fc_name,training_fc_tn,training_fc_fp,training_fc_fn,training_fc_tp,testing_true_negative,testing_false_positive,testing_false_negative,testing_true_positive,testing_fc_name,testing_fc_tn,testing_fc_fp,testing_fc_fn,testing_fc_tp
0,test,test,test,test,test,test,test,test,test,test,test,test,test,test,test,test,test,test,test,test,test,,,,,,,,,,,,,,,,,,
1,xl43843,20200812-112736,segment,rural,binary,SVC,SVC20200812-111453,58,"Index(['st_length', 'curve_ratio', 'one_way', 'bicycle_facility_width',
       'bicycle_path_category', 'bicycle_buffer_width', 'bicycle_buffer_type',
       'bicycle_path_type', 'bicycle_approach_alignment', 'bus_trips_total',
       'crossing_aadt', 'crossing_functional_classification', 'crossing_speed',
       'functional_classification', 'intersection_control_type',
       'lane_configuration', 'max_lanes_crossed', 'parking_lane_width',
       'marked_center_line', 'posted_speed', 'railroad_crossing_type',
       'right_turn_length', 'road_sign_type', 'sidewalk_buffer_width',
       'sidewalk_condition_score', 'sidewalk_width', 'sidewalk_buffer_type',
       'total_lanes', 'in_urbanized_area', 'volume_capacity',
       'overall_landuse', 'ACC_CNTL', 'I_SHD1_TYP', 'I_SHD1_WTH', 'I_SHD2_TYP',
       'I_SHD2_WTH', 'LN_WTH', 'LNS', 'MED_TYP', 'MED_WTH', 'SURF_TYP',
       'SURF_WTH', 'O_SHD1_TYP', 'O_SHD1_WTH', 'O_SHD2_TYP', 'O_SHD2_WTH',
       'OP_1_2_WAY', 'PRK_LT', 'PRK_RT', 'JUR_TYPE', 'MPO', 'MUNI_NAME', 'NHS',
       'TRK_RT', 'AADT', 'HCV', 'Pop_den', 'PC'],
      dtype='object')",1: SVC hyper-para tuning,"{'C': 10, 'class_weight': {1: 10}, 'kernel': 'linear'}",None,None,0.08879511132050541,0.06384025337667759,0.2583276682528891,-0.6715838589116827,"['OP_1_2_WAY_embed_0' 'TRK_RT_embed_1' 'NHS_embed_0' 'PRK_RT_embed_1'
 'ACC_CNTL_embed_0' 'ACC_CNTL_embed_1' 'functional_classification_embed_2'
 'bicycle_buffer_type_embed_1' 'functional_classification_embed_1'
 'I_SHD1_WTH' 'TRK_RT_embed_0' 'MUNI_NAME_embed_9' 'I_SHD2_TYP'
 'MPO_embed_0' 'MED_WTH' 'PRK_LT_embed_0' 'PRK_RT_embed_0'
 'crossing_functional_classification_embed_2' 'JUR_TYPE_embed_3'
 'PRK_LT_embed_1']",5% 2014-2017,2018,815.8175876140594,9729,115,88,30,"['Interstate', 'Local Road or Street', 'Major Arterial', 'Major Collector', 'Minor Arterial', 'Minor Collector']","[0.21081081081081082, 0.994475138121547, 0.9917355371900827, 0.9807692307692307, 0.9642147117296223, 0.9963768115942029]","[0.6216216216216216, 0.0, 0.0, 0.0, 0.0, 0.0]","[0.005405405405405406, 0.0055248618784530384, 0.008264462809917356, 0.019230769230769232, 0.03578528827037773, 0.0036231884057971015]","[0.16216216216216217, 0.0, 0.0, 0.0, 0.0, 0.0]",48725,522,415,152,"['Interstate', 'Local Road or Street', 'Major Arterial', 'Major Collector', 'Minor Arterial', 'Minor Collector']","[0.2543859649122807, 0.9955013214868133, 0.9789964994165694, 0.9799209005171889, 0.9723352318958502, 0.994980694980695]","[0.5723684210526315, 0.0, 0.0, 0.0, 0.0, 0.0]","[0.006578947368421052, 0.004498678513186752, 0.021003500583430573, 0.020079099482811075, 0.027664768104149716, 0.005019305019305019]","[0.16666666666666666, 0.0, 0.0, 0.0, 0.0, 0.0]"
2,xl43843,20200813-073832,segment,rural,binary,SVC,SVC20200813-073832,58,"Index(['st_length', 'curve_ratio', 'one_way', 'bicycle_facility_width',
       'bicycle_path_category', 'bicycle_buffer_width', 'bicycle_buffer_type',
       'bicycle_path_type', 'bicycle_approach_alignment', 'bus_trips_total',
       'crossing_aadt', 'crossing_functional_classification', 'crossing_speed',
       'functional_classification', 'intersection_control_type',
       'lane_configuration', 'max_lanes_crossed', 'parking_lane_width',
       'marked_center_line', 'posted_speed', 'railroad_crossing_type',
       'right_turn_length', 'road_sign_type', 'sidewalk_buffer_width',
       'sidewalk_condition_score', 'sidewalk_width', 'sidewalk_buffer_type',
       'total_lanes', 'in_urbanized_area', 'volume_capacity',
       'overall_landuse', 'ACC_CNTL', 'I_SHD1_TYP', 'I_SHD1_WTH', 'I_SHD2_TYP',
       'I_SHD2_WTH', 'LN_WTH', 'LNS', 'MED_TYP', 'MED_WTH', 'SURF_TYP',
       'SURF_WTH', 'O_SHD1_TYP', 'O_SHD1_WTH', 'O_SHD2_TYP', 'O_SHD2_WTH',
       'OP_1_2_WAY', 'PRK_LT', 'PRK_RT', 'JUR_TYPE', 'MPO', 'MUNI_NAME', 'NHS',
       'TRK_RT', 'AADT', 'HCV', 'Pop_den', 'PC'],
      dtype='object')",1: SVC hyper-para tuning,"{'C': 3, 'class_weight': {1: 10}, 'kernel': 'linear'}",None,None,0.08987714495463162,0.06354110725998331,0.2583276682528891,-0.6715838589116827,"['TRK_RT_embed_1' 'OP_1_2_WAY_embed_0' 'TRK_RT_embed_0' 'ACC_CNTL_embed_0'
 'ACC_CNTL_embed_1' 'I_SHD1_WTH' 'I_SHD2_TYP' 'NHS_embed_0'
 'PRK_LT_embed_0' 'JUR_TYPE_embed_2' 'MED_WTH' 'JUR_TYPE_embed_3'
 'MUNI_NAME_embed_3' 'MUNI_NAME_embed_8' 'PRK_LT_embed_1'
 'functional_classification_embed_1' 'functional_classification_embed_0'
 'curve_ratio' 'MUNI_NAME_embed_7' 'PRK_RT_embed_0']",5% 2014-2017,2018,266.6472792625427,9729,115,88,30,"['Interstate', 'Local Road or Street', 'Major Arterial', 'Major Collector', 'Minor Arterial', 'Minor Collector']","[0.21081081081081082, 0.994475138121547, 0.9917355371900827, 0.9807692307692307, 0.9642147117296223, 0.9963768115942029]","[0.6216216216216216, 0.0, 0.0, 0.0, 0.0, 0.0]","[0.005405405405405406, 0.0055248618784530384, 0.008264462809917356, 0.019230769230769232, 0.03578528827037773, 0.0036231884057971015]","[0.16216216216216217, 0.0, 0.0, 0.0, 0.0, 0.0]",48725,522,415,152,"['Interstate', 'Local Road or Street', 'Major Arterial', 'Major Collector', 'Minor Arterial', 'Minor Collector']","[0.2543859649122807, 0.9955013214868133, 0.9789964994165694, 0.9799209005171889, 0.9723352318958502, 0.994980694980695]","[0.5723684210526315, 0.0, 0.0, 0.0, 0.0, 0.0]","[0.006578947368421052, 0.004498678513186752, 0.021003500583430573, 0.020079099482811075, 0.027664768104149716, 0.005019305019305019]","[0.16666666666666666, 0.0, 0.0, 0.0, 0.0, 0.0]"
